module API

go 1.19

require (
	github.com/go-redis/redis/v8 v8.11.5
	github.com/spf13/cobra v1.5.0
	github.com/spf13/viper v1.12.0
	gorm.io/driver/mysql v1.3.6
	gorm.io/gorm v1.23.8
)

require (
	github.com/cespare/xxhash/v2 v2.1.2 // indirect
	github.com/dgryski/go-rendezvous v0.0.0-20200823014737-9f7001d12a5f // indirect
	github.com/go-sql-driver/mysql v1.6.0 // indirect
	github.com/inconshreveable/mousetrap v1.0.0 // indirect
	github.com/jinzhu/inflection v1.0.0 // indirect
	github.com/jinzhu/now v1.1.5 // indirect
)

require (
	github.com/fsnotify/fsnotify v1.5.4 // indirect
	github.com/gorilla/mux v1.8.0
	github.com/hashicorp/hcl v1.0.0 // indirect
	github.com/magiconair/properties v1.8.6 // indirect
	github.com/mitchellh/mapstructure v1.5.0 // indirect
	github.com/pelletier/go-toml v1.9.5 // indirect
	github.com/pelletier/go-toml/v2 v2.0.1 // indirect
	github.com/spf13/afero v1.8.2 // indirect
	github.com/spf13/cast v1.5.0 // indirect
	github.com/spf13/jwalterweatherman v1.1.0 // indirect
	github.com/spf13/pflag v1.0.5 // indirect
	github.com/subosito/gotenv v1.3.0 // indirect
	golang.org/x/sys v0.0.0-20220722155257-8c9f86f7a55f // indirect
	golang.org/x/text v0.3.7 // indirect
	gopkg.in/ini.v1 v1.66.4 // indirect
	gopkg.in/yaml.v2 v2.4.0 // indirect
	gopkg.in/yaml.v3 v3.0.0 // indirect
)
